<?xml version="1.0" encoding="UTF-8"?>
<grit latest_public_release="0" current_release="1">
  <outputs>
    <output filename="grit/cef_resources.h" type="rc_header">
      <emit emit_type='prepend'></emit>
    </output>
    <output filename="cef_resources.pak" type="data_package" />
  </outputs>
  <translations />
  <release seq="1">
    <includes>
      <include name="IDR_CEF_DEVTOOLS_DISCOVERY_PAGE" file="devtools_discovery_page.html" type="BINDATA" />
      <include name="IDR_CEF_LICENSE_TXT" file="..\..\LICENSE.txt" type="BINDATA" />
      <include name="IDR_CEF_VERSION_HTML" file="about_version.html" type="BINDATA" />

      <!-- Extension features supported by CEF. -->
      <include name="IDR_CEF_EXTENSION_API_FEATURES" file="..\common\extensions\api\_api_features.json" type="BINDATA" />
      <include name="IDR_CEF_EXTENSION_PERMISSION_FEATURES" file="..\common\extensions\api\_permission_features.json" type="BINDATA" />
    </includes>
  </release>
</grit>
